sim/dump.vcd
$date
	Mon May 22 20:13:12 2023
$end

$version
	Synopsys VCS version L-2016.06_Full64
$end

$timescale
	1s
$end

$comment Csum: 1 ade6d473e4e2b261 $end


$scope module $unit $end
$upscope $end


$scope module tb_top $end
$var reg 1 ! hclk $end
$var reg 1 " hresetn $end

$scope module vif $end
$var reg 1 # hclk $end
$var reg 1 $ hresetn $end
$var reg 1 % hsel $end
$var reg 32 & haddr [31:0] $end
$var reg 2 ' htrans [1:0] $end
$var reg 1 ( hwrite $end
$var reg 3 ) hsize [2:0] $end
$var reg 3 * hburst [2:0] $end
$var reg 4 + hprot [3:0] $end
$var reg 32 , hwdata [31:0] $end
$var reg 32 - hrdata [31:0] $end
$var reg 1 . hready $end
$var reg 1 / hresp $end
$var wor 1 0 error $end
$upscope $end


$scope module slave_1 $end
$var wire 1 1 hclk $end
$var wire 1 2 hresetn $end
$var wire 1 3 hsel $end
$var wire 32 4 haddr [31:0] $end
$var wire 2 5 htrans [1:0] $end
$var wire 1 6 hwrite $end
$var wire 3 7 hsize [2:0] $end
$var wire 3 8 hburst [2:0] $end
$var wire 4 9 hprot [3:0] $end
$var wire 32 : hwdata [31:0] $end
$var wire 32 ; hrdata [31:0] $end
$var reg 1 < hready $end
$var reg 1 = hresp [0:0] $end
$var wor 1 0 error $end
$var wor 1 > error_req $end
$var wire 32 ? delay [31:0] $end
$var wire 32 @ cnt_t [31:0] $end
$var reg 32 A cnt_t_r [31:0] $end
$var reg 1 B hsel_r $end
$var reg 32 C haddr_r [31:0] $end
$var reg 2 D htrans_r [1:0] $end
$var reg 1 E hwrite_r $end
$var reg 3 F hsize_r [2:0] $end
$var reg 3 G hburst_r [2:0] $end
$var reg 3 H hprot_r [2:0] $end
$var wire 8 I bytes [7:0] $end
$var wire 32 J wdata [31:0] $end
$var wire 32 K rdata [31:0] $end
$var wire 1 L trn $end
$var wire 1 M trn_req $end
$var wire 1 N trn_ack $end

$scope begin unnamed$$_0 $end
$upscope $end

$upscope $end

$upscope $end

$enddefinitions $end

#0
$dumpvars
0!
0"
bxxxxxxxxxxxxxxxxxxxxxxxxxxxxxxxx -
bxxxxxxxxxxxxxxxxxxxxxxxxxxxxxxxx ,
bxxxx +
bxxx *
bxxx )
bxx '
bxxxxxxxxxxxxxxxxxxxxxxxxxxxxxxxx &
0>
1<
0=
xB
xE
xM
0L
1N
b00000000000000000000000000000000 @
b00000000000000000000000000000000 A
b00000000000000000000000000000000 ?
bxxxxxxxxxxxxxxxxxxxxxxxxxxxxxxxx C
bxxx G
bxxx H
bxxx F
b00 D
bxxxxxxxxxxxxxxxxxxxxxxxxxxxxxxxx K
bxxxxxxxx I
bxxxxxxxxxxxxxxxxxxxxxxxxxxxxxxxx J
0#
0$
bxxxxxxxxxxxxxxxxxxxxxxxxxxxxxxxx 4
bxx 5
bxxx 7
bxxx 8
bxxxx 9
bxxxxxxxxxxxxxxxxxxxxxxxxxxxxxxxx :
bxxxxxxxxxxxxxxxxxxxxxxxxxxxxxxxx ;
01
02
x3
x6
1.
0/
x%
x(
z0
$end
0M
#5
1!
1#
11
1"
1$
12
bxx D
xM
xL
#6
0%
03
b00000000000000000000000000000000 &
b00000000000000000000000000000000 4
b00 '
b00 5
0(
06
b000 )
b000 7
b000 *
b000 8
b0000 +
b0000 9
b00000000000000000000000000000000 ,
b00000000000000000000000000000000 :
00
b00000000000000000000000000000000 J
#10
0!
0#
01
#15
1!
1#
11
0B
0M
b00000000000000000000000000000000 C
b00 D
0E
b000 F
b00000001 I
b000 G
b000 H
0L
#16
1%
13
1(
16
b10 '
b10 5
b0001 +
b0001 9
b00000000000000000000001101010111 &
b00000000000000000000001101010111 4
b10110100110101011010100100101110 ,
b10110100110101011010100100101110 :
b10110100110101011010100100101110 J
#20
0!
0#
01
#25
1!
1#
11
1B
b00000000000000000000001101010111 C
b10 D
1M
1E
b001 H
1L
#26
0(
06
b00 '
b00 5
b001 )
b001 7
b00000000000000000000000011100100 &
b00000000000000000000000011100100 4
b11011110001000010000100100010000 ,
b11011110001000010000100100010000 :
b11011110001000010000100100010000 J
#30
0!
0#
01
#35
1!
1#
11
b00000000000000000000000011100100 C
b00 D
0M
0E
b001 F
b00000010 I
0L
#36
1(
16
b00000000000000000000001000100100 &
b00000000000000000000001000100100 4
b01111011100100000100011011101001 ,
b01111011100100000100011011101001 :
b01111011100100000100011011101001 J
#40
0!
0#
01
#45
1!
1#
11
b00000000000000000000001000100100 C
1E
#46
0(
06
b01 '
b01 5
b010 )
b010 7
b00000000000000000000001011101000 &
b00000000000000000000001011101000 4
b01111100111010101110111110011001 ,
b01111100111010101110111110011001 :
b01111100111010101110111110011001 J
#50
0!
0#
01
#55
1!
1#
11
b00000000000000000000001011101000 C
b01 D
0E
b010 F
b00000100 I
#56
b10 '
b10 5
b001 )
b001 7
b00000000000000000000001111010000 &
b00000000000000000000001111010000 4
b10001000011010101110100110001111 ,
b10001000011010101110100110001111 :
b10001000011010101110100110001111 J
#60
0!
0#
01
#65
1!
1#
11
b00000000000000000000001111010000 C
b10 D
1M
b001 F
b00000010 I
1L
#66
1(
16
b00000000000000000000001111000100 &
b00000000000000000000001111000100 4
b11011100001111001010110111101111 ,
b11011100001111001010110111101111 :
b11011100001111001010110111101111 J
#70
0!
0#
01
#75
1!
1#
11
b00000000000000000000001111000100 C
1E
#76
0(
06
b000 )
b000 7
b00000000000000000000000000100101 &
b00000000000000000000000000100101 4
b11011101111101010110101111011111 ,
b11011101111101010110101111011111 :
b11011101111101010110101111011111 J
#80
0!
0#
01
#85
1!
1#
11
b00000000000000000000000000100101 C
0E
b000 F
b00000001 I
bxxxxxxxxxxxxxxxx00100101xxxxxxxx K
bxxxxxxxxxxxxxxxx00100101xxxxxxxx ;
bxxxxxxxxxxxxxxxx00100101xxxxxxxx -
#86
1(
16
b001 )
b001 7
b00000000000000000000000101010000 &
b00000000000000000000000101010000 4
b10100010101100101110101101010000 ,
b10100010101100101110101101010000 :
b10100010101100101110101101010000 J
#90
0!
0#
01
#95
1!
1#
11
b00000000000000000000000101010000 C
1E
b001 F
b00000010 I
bxxxxxxxxxxxxxxxxxxxxxxxxxxxxxxxx K
bxxxxxxxxxxxxxxxxxxxxxxxxxxxxxxxx ;
bxxxxxxxxxxxxxxxxxxxxxxxxxxxxxxxx -
#96
0(
06
b010 )
b010 7
b00000000000000000000001001000010 &
b00000000000000000000001001000010 4
b11011110001000001011110000000000 ,
b11011110001000001011110000000000 :
b11011110001000001011110000000000 J
#100
0!
0#
01
#105
1!
1#
11
b00000000000000000000001001000010 C
0E
b010 F
b00000100 I
#106
1(
16
b001 )
b001 7
b00000000000000000000001001010000 &
b00000000000000000000001001010000 4
b01111011101111111111001001011101 ,
b01111011101111111111001001011101 :
b01111011101111111111001001011101 J
#110
0!
0#
01
#115
1!
1#
11
b00000000000000000000001001010000 C
1E
b001 F
b00000010 I
#116
0(
06
b00000000000000000000000001010000 &
b00000000000000000000000001010000 4
b11111100011000101111001100010110 ,
b11111100011000101111001100010110 :
b11111100011000101111001100010110 J
#120
0!
0#
01
#125
1!
1#
11
b00000000000000000000000001010000 C
0E
bxxxxxxxxxxxxxxxx0101000101010000 K
bxxxxxxxxxxxxxxxx0101000101010000 ;
bxxxxxxxxxxxxxxxx0101000101010000 -
#126
1(
16
b000 )
b000 7
b00000000000000000000001110101111 &
b00000000000000000000001110101111 4
b10000000111000101001010001011010 ,
b10000000111000101001010001011010 :
b10000000111000101001010001011010 J
#130
0!
0#
01
#135
1!
1#
11
b00000000000000000000001110101111 C
1E
b000 F
b00000001 I
bxxxxxxxxxxxxxxxxxxxxxxxxxxxxxxxx K
bxxxxxxxxxxxxxxxxxxxxxxxxxxxxxxxx ;
bxxxxxxxxxxxxxxxxxxxxxxxxxxxxxxxx -
#136
0(
06
b001 )
b001 7
b00000000000000000000000000011100 &
b00000000000000000000000000011100 4
b11011110001000001011111001001000 ,
b11011110001000001011111001001000 :
b11011110001000001011111001001000 J
#140
0!
0#
01
#145
1!
1#
11
b00000000000000000000000000011100 C
0E
b001 F
b00000010 I
bxxxxxxxxxxxxxxxx0001110100011100 K
bxxxxxxxxxxxxxxxx0001110100011100 ;
bxxxxxxxxxxxxxxxx0001110100011100 -
#146
1(
16
b01 '
b01 5
b00000000000000000000000000010100 &
b00000000000000000000000000010100 4
b11010000111100110011000000001111 ,
b11010000111100110011000000001111 :
b11010000111100110011000000001111 J
#150
0!
0#
01
#155
1!
1#
11
b00000000000000000000000000010100 C
b01 D
0M
1E
0L
bxxxxxxxxxxxxxxxxxxxxxxxxxxxxxxxx K
bxxxxxxxxxxxxxxxxxxxxxxxxxxxxxxxx ;
bxxxxxxxxxxxxxxxxxxxxxxxxxxxxxxxx -
#156
b10 '
b10 5
b00000000000000000000000100100100 &
b00000000000000000000000100100100 4
b01111011100101100100110001010001 ,
b01111011100101100100110001010001 :
b01111011100101100100110001010001 J
#160
0!
0#
01
#165
1!
1#
11
b00000000000000000000000100100100 C
b10 D
1M
1L
#166
0(
06
b000 )
b000 7
b00000000000000000000000010110000 &
b00000000000000000000000010110000 4
b11011101111111011100100110100000 ,
b11011101111111011100100110100000 :
b11011101111111011100100110100000 J
#170
0!
0#
01
#175
1!
1#
11
b00000000000000000000000010110000 C
0E
b000 F
b00000001 I
bxxxxxxxxxxxxxxxxxxxxxxxx10110000 K
bxxxxxxxxxxxxxxxxxxxxxxxx10110000 ;
bxxxxxxxxxxxxxxxxxxxxxxxx10110000 -
#176
1(
16
b00000000000000000000001011010101 &
b00000000000000000000001011010101 4
b11011110001000001011111000011111 ,
b11011110001000001011111000011111 :
b11011110001000001011111000011111 J
#180
0!
0#
01
#185
1!
1#
11
b00000000000000000000001011010101 C
1E
bxxxxxxxxxxxxxxxxxxxxxxxxxxxxxxxx K
bxxxxxxxxxxxxxxxxxxxxxxxxxxxxxxxx ;
bxxxxxxxxxxxxxxxxxxxxxxxxxxxxxxxx -
#186
0(
06
b00 '
b00 5
b001 )
b001 7
b00000000000000000000000000001100 &
b00000000000000000000000000001100 4
b11111110111100010000011101100001 ,
b11111110111100010000011101100001 :
b11111110111100010000011101100001 J
#190
0!
0#
01
#195
1!
1#
11
b00000000000000000000000000001100 C
b00 D
0M
0E
b001 F
b00000010 I
0L
#196
b10 '
b10 5
b010 )
b010 7
b00000000000000000000001110110000 &
b00000000000000000000001110110000 4
b01111011100111010001001011100011 ,
b01111011100111010001001011100011 :
b01111011100111010001001011100011 J
#200
0!
0#
01
#205
1!
1#
11
b00000000000000000000001110110000 C
b10 D
1M
b010 F
b00000100 I
1L
#206
1(
16
b000 )
b000 7
b00000000000000000000001001000110 &
b00000000000000000000001001000110 4
b01111100111001101010000001110011 ,
b01111100111001101010000001110011 :
b01111100111001101010000001110011 J
#210
0!
0#
01
#215
1!
1#
11
b00000000000000000000001001000110 C
1E
b000 F
b00000001 I
#216
b010 )
b010 7
b00000000000000000000000011110000 &
b00000000000000000000000011110000 4
b11111110110101110101101101111010 ,
b11111110110101110101101101111010 :
b11111110110101110101101101111010 J
#220
0!
0#
01
#225
1!
1#
11
b00000000000000000000000011110000 C
b010 F
b00000100 I
#226
0(
06
b000 )
b000 7
b00000000000000000000001111111001 &
b00000000000000000000001111111001 4
b01111011100101011000111110000100 ,
b01111011100101011000111110000100 :
b01111011100101011000111110000100 J
#230
0!
0#
01
#235
1!
1#
11
b00000000000000000000001111111001 C
0E
b000 F
b00000001 I
#236
b010 )
b010 7
b00000000000000000000000100111110 &
b00000000000000000000000100111110 4
b11011110001000001011111000100010 ,
b11011110001000001011111000100010 :
b11011110001000001011111000100010 J
#240
0!
0#
01
#245
1!
1#
11
b00000000000000000000000100111110 C
b010 F
b00000100 I
#246
1(
16
b001 )
b001 7
b00000000000000000000001011000100 &
b00000000000000000000001011000100 4
b11011101111111010011010000111001 ,
b11011101111111010011010000111001 :
b11011101111111010011010000111001 J
#250
0!
0#
01
#255
1!
1#
11
b00000000000000000000001011000100 C
1E
b001 F
b00000010 I
#256
0(
06
b010 )
b010 7
b00000000000000000000001111010110 &
b00000000000000000000001111010110 4
b11001001001101110000011110010100 ,
b11001001001101110000011110010100 :
b11001001001101110000011110010100 J
#260
0!
0#
01
#265
1!
1#
11
b00000000000000000000001111010110 C
0E
b010 F
b00000100 I
#266
1(
16
b00000000000000000000001110011100 &
b00000000000000000000001110011100 4
b11011110001000001011111000100000 ,
b11011110001000001011111000100000 :
b11011110001000001011111000100000 J
#270
0!
0#
01
#275
1!
1#
11
b00000000000000000000001110011100 C
1E
#276
0(
06
b00 '
b00 5
b001 )
b001 7
b00000000000000000000001110000100 &
b00000000000000000000001110000100 4
b11011110001000001111111000100100 ,
b11011110001000001111111000100100 :
b11011110001000001111111000100100 J
#280
0!
0#
01
#285
1!
1#
11
b00000000000000000000001110000100 C
b00 D
0M
0E
b001 F
b00000010 I
0L
#286
1(
16
b10 '
b10 5
b000 )
b000 7
b00000000000000000000000101100100 &
b00000000000000000000000101100100 4
b11011110001000001111001101001111 ,
b11011110001000001111001101001111 :
b11011110001000001111001101001111 J
#290
0!
0#
01
#295
1!
1#
11
b00000000000000000000000101100100 C
b10 D
1M
1E
b000 F
b00000001 I
1L
#296
0(
06
b010 )
b010 7
b00000000000000000000001001110110 &
b00000000000000000000001001110110 4
b01111100001111001101001000110101 ,
b01111100001111001101001000110101 :
b01111100001111001101001000110101 J
#300
0!
0#
01
#305
1!
1#
11
b00000000000000000000001001110110 C
0E
b010 F
b00000100 I
#306
1(
16
b00000000000000000000000100001100 &
b00000000000000000000000100001100 4
b01111011111110000001111000000111 ,
b01111011111110000001111000000111 :
b01111011111110000001111000000111 J
#310
0!
0#
01
#315
1!
1#
11
b00000000000000000000000100001100 C
1E
#316
0(
06
b00000000000000000000001010000110 &
b00000000000000000000001010000110 4
b10000110011010000011011011111111 ,
b10000110011010000011011011111111 :
b10000110011010000011011011111111 J
#320
0!
0#
01
#325
1!
1#
11
b00000000000000000000001010000110 C
0E
#326
1(
16
b000 )
b000 7
b00000000000000000000001011000110 &
b00000000000000000000001011000110 4
b01111011100110111100000101011001 ,
b01111011100110111100000101011001 :
b01111011100110111100000101011001 J
#330
0!
0#
01
#335
1!
1#
11
b00000000000000000000001011000110 C
1E
b000 F
b00000001 I
#336
b010 )
b010 7
b00000000000000000000001110010010 &
b00000000000000000000001110010010 4
b01111011100101100011011001111101 ,
b01111011100101100011011001111101 :
b01111011100101100011011001111101 J
#340
0!
0#
01
#345
1!
1#
11
b00000000000000000000001110010010 C
b010 F
b00000100 I
#346
0(
06
b001 )
b001 7
b00000000000000000000000111000100 &
b00000000000000000000000111000100 4
b01111011100101100011011100001010 ,
b01111011100101100011011100001010 :
b01111011100101100011011100001010 J
#350
0!
0#
01
#355
1!
1#
11
b00000000000000000000000111000100 C
0E
b001 F
b00000010 I
#356
1(
16
b000 )
b000 7
b00000000000000000000001001001000 &
b00000000000000000000001001001000 4
b11011110000100110000000111110011 ,
b11011110000100110000000111110011 :
b11011110000100110000000111110011 J
#360
0!
0#
01
#365
1!
1#
11
b00000000000000000000001001001000 C
1E
b000 F
b00000001 I
#366
0(
06
b00000000000000000000001010111000 &
b00000000000000000000001010111000 4
b10111110100010011001000011100111 ,
b10111110100010011001000011100111 :
b10111110100010011001000011100111 J
#370
0!
0#
01
#375
1!
1#
11
b00000000000000000000001010111000 C
0E
#376
b010 )
b010 7
b00000000000000000000000110010010 &
b00000000000000000000000110010010 4
b01111011101100001001110110100001 ,
b01111011101100001001110110100001 :
b01111011101100001001110110100001 J
#380
0!
0#
01
#385
1!
1#
11
b00000000000000000000000110010010 C
b010 F
b00000100 I
#386
1(
16
b000 )
b000 7
b00000000000000000000001110110100 &
b00000000000000000000001110110100 4
b01111101111010101100110111000111 ,
b01111101111010101100110111000111 :
b01111101111010101100110111000111 J
#390
0!
0#
01
#395
1!
1#
11
b00000000000000000000001110110100 C
1E
b000 F
b00000001 I
#396
0(
06
b010 )
b010 7
b00000000000000000000001000010010 &
b00000000000000000000001000010010 4
b01111011100101100011011100000110 ,
b01111011100101100011011100000110 :
b01111011100101100011011100000110 J
#400
0!
0#
01
#405
1!
1#
11
b00000000000000000000001000010010 C
0E
b010 F
b00000100 I
#406
1(
16
b001 )
b001 7
b00000000000000000000001011111000 &
b00000000000000000000001011111000 4
b10101101101001011011000001101111 ,
b10101101101001011011000001101111 :
b10101101101001011011000001101111 J
#410
0!
0#
01
#415
1!
1#
11
b00000000000000000000001011111000 C
1E
b001 F
b00000010 I
#416
b010 )
b010 7
b00000000000000000000000110011100 &
b00000000000000000000000110011100 4
b10000100111000001110111001110000 ,
b10000100111000001110111001110000 :
b10000100111000001110111001110000 J
#420
0!
0#
01
#425
1!
1#
11
b00000000000000000000000110011100 C
b010 F
b00000100 I
#426
0(
06
b01 '
b01 5
b000 )
b000 7
b00000000000000000000000100101111 &
b00000000000000000000000100101111 4
b10001000011001101100110011000001 ,
b10001000011001101100110011000001 :
b10001000011001101100110011000001 J
#430
0!
0#
01
#435
1!
1#
11
b00000000000000000000000100101111 C
b01 D
0M
0E
b000 F
b00000001 I
0L
#436
1(
16
b00000000000000000000000001101001 &
b00000000000000000000000001101001 4
b01111100010000010011100101001110 ,
b01111100010000010011100101001110 :
b01111100010000010011100101001110 J
#440
0!
0#
01
#445
1!
1#
11
b00000000000000000000000001101001 C
1E
#446
0(
06
b10 '
b10 5
b00000000000000000000000010110000 &
b00000000000000000000000010110000 4
b11001110010000001010011001111111 ,
b11001110010000001010011001111111 :
b11001110010000001010011001111111 J
#450
0!
0#
01
#455
1!
1#
11
b00000000000000000000000010110000 C
b10 D
1M
0E
1L
bxxxxxxxxxxxxxxxxxxxxxxxx10110000 K
bxxxxxxxxxxxxxxxxxxxxxxxx10110000 ;
bxxxxxxxxxxxxxxxxxxxxxxxx10110000 -
#456
b001 )
b001 7
b00000000000000000000000110101100 &
b00000000000000000000000110101100 4
b11111110110110001101011010101111 ,
b11111110110110001101011010101111 :
b11111110110110001101011010101111 J
#460
0!
0#
01
#465
1!
1#
11
b00000000000000000000000110101100 C
b001 F
b00000010 I
bxxxxxxxxxxxxxxxxxxxxxxxxxxxxxxxx K
bxxxxxxxxxxxxxxxxxxxxxxxxxxxxxxxx ;
bxxxxxxxxxxxxxxxxxxxxxxxxxxxxxxxx -
#466
1(
16
b00 '
b00 5
b010 )
b010 7
b00000000000000000000001011000000 &
b00000000000000000000001011000000 4
b01111011100101100011011100000111 ,
b01111011100101100011011100000111 :
b01111011100101100011011100000111 J
#470
0!
0#
01
#475
1!
1#
11
b00000000000000000000001011000000 C
b00 D
0M
1E
b010 F
b00000100 I
0L
#476
0(
06
b000 )
b000 7
b00000000000000000000000011001001 &
b00000000000000000000000011001001 4
b10111010001100000100110001010001 ,
b10111010001100000100110001010001 :
b10111010001100000100110001010001 J
#480
0!
0#
01
#485
1!
1#
11
b00000000000000000000000011001001 C
0E
b000 F
b00000001 I
#486
1(
16
b10 '
b10 5
b00000000000000000000001011101010 &
b00000000000000000000001011101010 4
b11011110000011111000000010111001 ,
b11011110000011111000000010111001 :
b11011110000011111000000010111001 J
#490
0!
0#
01
#495
1!
1#
11
b00000000000000000000001011101010 C
b10 D
1M
1E
1L
#496
b010 )
b010 7
b00000000000000000000001000110010 &
b00000000000000000000001000110010 4
b11011110000000001010000101110001 ,
b11011110000000001010000101110001 :
b11011110000000001010000101110001 J
#500
0!
0#
01
#505
1!
1#
11
b00000000000000000000001000110010 C
b010 F
b00000100 I
#506
0(
06
b001 )
b001 7
b00000000000000000000000100000000 &
b00000000000000000000000100000000 4
b01010111010001111101010010001110 ,
b01010111010001111101010010001110 :
b01010111010001111101010010001110 J
#510
0!
0#
01
#515
1!
1#
11
b00000000000000000000000100000000 C
0E
b001 F
b00000010 I
#516
b00000000000000000000000110100000 &
b00000000000000000000000110100000 4
b11000111011111100001100110101011 ,
b11000111011111100001100110101011 :
b11000111011111100001100110101011 J
#520
0!
0#
01
#525
1!
1#
11
b00000000000000000000000110100000 C
#526
1(
16
b010 )
b010 7
b00000000000000000000001110010110 &
b00000000000000000000001110010110 4
b01100000101010001101000001001101 ,
b01100000101010001101000001001101 :
b01100000101010001101000001001101 J
#530
0!
0#
01
#535
1!
1#
11
b00000000000000000000001110010110 C
1E
b010 F
b00000100 I
#536
b001 )
b001 7
b00000000000000000000000011010100 &
b00000000000000000000000011010100 4
b10000101000110110110001000000100 ,
b10000101000110110110001000000100 :
b10000101000110110110001000000100 J
#540
0!
0#
01
#545
1!
1#
11
b00000000000000000000000011010100 C
b001 F
b00000010 I
#546
0(
06
b00000000000000000000000011000100 &
b00000000000000000000000011000100 4
b01111011100101100100100100010101 ,
b01111011100101100100100100010101 :
b01111011100101100100100100010101 J
#550
0!
0#
01
#555
1!
1#
11
b00000000000000000000000011000100 C
0E
bxxxxxxxxxxxxxxxx1100010111000100 K
bxxxxxxxxxxxxxxxx1100010111000100 ;
bxxxxxxxxxxxxxxxx1100010111000100 -
#556
b000 )
b000 7
b00000000000000000000001111100010 &
b00000000000000000000001111100010 4
b11011110001000001011110011000000 ,
b11011110001000001011110011000000 :
b11011110001000001011110011000000 J
#560
0!
0#
01
#565
1!
1#
11
b00000000000000000000001111100010 C
b000 F
b00000001 I
bxxxxxxxxxxxxxxxxxxxxxxxxxxxxxxxx K
bxxxxxxxxxxxxxxxxxxxxxxxxxxxxxxxx ;
bxxxxxxxxxxxxxxxxxxxxxxxxxxxxxxxx -
#566
1(
16
b010 )
b010 7
b00000000000000000000001101000000 &
b00000000000000000000001101000000 4
b10000101001010000111111011010101 ,
b10000101001010000111111011010101 :
b10000101001010000111111011010101 J
#570
0!
0#
01
#575
1!
1#
11
b00000000000000000000001101000000 C
1E
b010 F
b00000100 I
#576
b001 )
b001 7
b00000000000000000000000110100100 &
b00000000000000000000000110100100 4
b11011101000010110101011010001101 ,
b11011101000010110101011010001101 :
b11011101000010110101011010001101 J
#580
0!
0#
01
#585
1!
1#
11
b00000000000000000000000110100100 C
b001 F
b00000010 I
#586
0(
06
b010 )
b010 7
b00000000000000000000001010100010 &
b00000000000000000000001010100010 4
b11011110001000001011110000011000 ,
b11011110001000001011110000011000 :
b11011110001000001011110000011000 J
#590
0!
0#
01
#595
1!
1#
11
b00000000000000000000001010100010 C
0E
b010 F
b00000100 I
#596
b00000000000000000000001010111010 &
b00000000000000000000001010111010 4
b01111011100101011001011001001011 ,
b01111011100101011001011001001011 :
b01111011100101011001011001001011 J
#600
0!
0#
01
#605
1!
1#
11
b00000000000000000000001010111010 C
#606
1(
16
b00000000000000000000000010101100 &
b00000000000000000000000010101100 4
b01111011100111000001101111001111 ,
b01111011100111000001101111001111 :
b01111011100111000001101111001111 J
#610
0!
0#
01
#615
1!
1#
11
b00000000000000000000000010101100 C
1E
#616
b001 )
b001 7
b00000000000000000000000111000100 &
b00000000000000000000000111000100 4
b11011100110000111000111000100101 ,
b11011100110000111000111000100101 :
b11011100110000111000111000100101 J
#620
0!
0#
01
#625
1!
1#
11
b00000000000000000000000111000100 C
b001 F
b00000010 I
#626
0(
06
b000 )
b000 7
b00000000000000000000001000110011 &
b00000000000000000000001000110011 4
b01111101010100100000000111101011 ,
b01111101010100100000000111101011 :
b01111101010100100000000111101011 J
#630
0!
0#
01
#635
1!
1#
11
b00000000000000000000001000110011 C
0E
b000 F
b00000001 I
b01010111xxxxxxxxxxxxxxxxxxxxxxxx K
b01010111xxxxxxxxxxxxxxxxxxxxxxxx ;
b01010111xxxxxxxxxxxxxxxxxxxxxxxx -
#636
1(
16
b001 )
b001 7
b00000000000000000000001101010100 &
b00000000000000000000001101010100 4
b11011110000100011001011000110100 ,
b11011110000100011001011000110100 :
b11011110000100011001011000110100 J
#640
0!
0#
01
#645
1!
1#
11
b00000000000000000000001101010100 C
1E
b001 F
b00000010 I
bxxxxxxxxxxxxxxxxxxxxxxxxxxxxxxxx K
bxxxxxxxxxxxxxxxxxxxxxxxxxxxxxxxx ;
bxxxxxxxxxxxxxxxxxxxxxxxxxxxxxxxx -
#646
0(
06
b01 '
b01 5
b010 )
b010 7
b00000000000000000000001100110110 &
b00000000000000000000001100110110 4
b11011110000011111010011001110001 ,
b11011110000011111010011001110001 :
b11011110000011111010011001110001 J
#650
0!
0#
01
#655
1!
1#
11
b00000000000000000000001100110110 C
b01 D
0M
0E
b010 F
b00000100 I
0L
#656
1(
16
b10 '
b10 5
b00000000000000000000000110100010 &
b00000000000000000000000110100010 4
b11010100101011000100010011111000 ,
b11010100101011000100010011111000 :
b11010100101011000100010011111000 J
#660
0!
0#
01
#665
1!
1#
11
b00000000000000000000000110100010 C
b10 D
1M
1E
1L
#666
0(
06
b000 )
b000 7
b00000000000000000000000000010011 &
b00000000000000000000000000010011 4
b11011101011111010001011111111110 ,
b11011101011111010001011111111110 :
b11011101011111010001011111111110 J
#670
0!
0#
01
#675
1!
1#
11
b00000000000000000000000000010011 C
0E
b000 F
b00000001 I
b00010011xxxxxxxxxxxxxxxxxxxxxxxx K
b00010011xxxxxxxxxxxxxxxxxxxxxxxx ;
b00010011xxxxxxxxxxxxxxxxxxxxxxxx -
#676
b00000000000000000000001110011110 &
b00000000000000000000001110011110 4
b11110001110110100000110011010100 ,
b11110001110110100000110011010100 :
b11110001110110100000110011010100 J
#680
0!
0#
01
#685
1!
1#
11
b00000000000000000000001110011110 C
bxxxxxxxx00100000xxxxxxxxxxxxxxxx K
bxxxxxxxx00100000xxxxxxxxxxxxxxxx ;
bxxxxxxxx00100000xxxxxxxxxxxxxxxx -
#686
1(
16
b010 )
b010 7
b00000000000000000000001011011010 &
b00000000000000000000001011011010 4
b11011110001000001011110010101011 ,
b11011110001000001011110010101011 :
b11011110001000001011110010101011 J
#690
0!
0#
01
#695
1!
1#
11
b00000000000000000000001011011010 C
1E
b010 F
b00000100 I
bxxxxxxxxxxxxxxxxxxxxxxxxxxxxxxxx K
bxxxxxxxxxxxxxxxxxxxxxxxxxxxxxxxx ;
bxxxxxxxxxxxxxxxxxxxxxxxxxxxxxxxx -
#696
0(
06
b001 )
b001 7
b00000000000000000000001001011000 &
b00000000000000000000001001011000 4
b11011110000001001010011001100001 ,
b11011110000001001010011001100001 :
b11011110000001001010011001100001 J
#700
0!
0#
01
#705
1!
1#
11
b00000000000000000000001001011000 C
0E
b001 F
b00000010 I
#706
1(
16
b00 '
b00 5
b000 )
b000 7
b00000000000000000000000110000010 &
b00000000000000000000000110000010 4
b11011000010110011101101011000111 ,
b11011000010110011101101011000111 :
b11011000010110011101101011000111 J
#710
0!
0#
01
#715
1!
1#
11
b00000000000000000000000110000010 C
b00 D
0M
1E
b000 F
b00000001 I
0L
#716
0(
06
b10 '
b10 5
b010 )
b010 7
b00000000000000000000000011101010 &
b00000000000000000000000011101010 4
b11110001010000111001000111111011 ,
b11110001010000111001000111111011 :
b11110001010000111001000111111011 J
#720
0!
0#
01
#725
1!
1#
11
b00000000000000000000000011101010 C
b10 D
1M
0E
b010 F
b00000100 I
1L
b1110101111101010xxxxxxxxxxxxxxxx K
b1110101111101010xxxxxxxxxxxxxxxx ;
b1110101111101010xxxxxxxxxxxxxxxx -
#726
1(
16
b00000000000000000000001101011110 &
b00000000000000000000001101011110 4
b11011101000001100111011000011111 ,
b11011101000001100111011000011111 :
b11011101000001100111011000011111 J
#730
0!
0#
01
#735
1!
1#
11
b00000000000000000000001101011110 C
1E
bxxxxxxxxxxxxxxxxxxxxxxxxxxxxxxxx K
bxxxxxxxxxxxxxxxxxxxxxxxxxxxxxxxx ;
bxxxxxxxxxxxxxxxxxxxxxxxxxxxxxxxx -
#736
0(
06
b01 '
b01 5
b000 )
b000 7
b00000000000000000000001111001100 &
b00000000000000000000001111001100 4
b10110110010011111010100100001111 ,
b10110110010011111010100100001111 :
b10110110010011111010100100001111 J
#740
0!
0#
01
#745
1!
1#
11
b00000000000000000000001111001100 C
b01 D
0M
0E
b000 F
b00000001 I
0L
#746
1(
16
b10 '
b10 5
b010 )
b010 7
b00000000000000000000001011111100 &
b00000000000000000000001011111100 4
b11111010000101010110110001100110 ,
b11111010000101010110110001100110 :
b11111010000101010110110001100110 J
#750
0!
0#
01
#755
1!
1#
11
b00000000000000000000001011111100 C
b10 D
1M
1E
b010 F
b00000100 I
1L
#756
b000 )
b000 7
b00000000000000000000001010100011 &
b00000000000000000000001010100011 4
b11011101001111001001000110011011 ,
b11011101001111001001000110011011 :
b11011101001111001001000110011011 J
#760
0!
0#
01
#765
1!
1#
11
b00000000000000000000001010100011 C
b000 F
b00000001 I
#766
0(
06
b001 )
b001 7
b00000000000000000000001000011100 &
b00000000000000000000001000011100 4
b11011110000001011001100101001010 ,
b11011110000001011001100101001010 :
b11011110000001011001100101001010 J
#770
0!
0#
01
#775
1!
1#
11
b00000000000000000000001000011100 C
0E
b001 F
b00000010 I
#776
1(
16
b000 )
b000 7
b00000000000000000000001011001010 &
b00000000000000000000001011001010 4
b11011110000000101001101011000110 ,
b11011110000000101001101011000110 :
b11011110000000101001101011000110 J
#780
0!
0#
01
#785
1!
1#
11
b00000000000000000000001011001010 C
1E
b000 F
b00000001 I
#786
0(
06
b001 )
b001 7
b00000000000000000000000100000100 &
b00000000000000000000000100000100 4
b10111010011111111010101000101110 ,
b10111010011111111010101000101110 :
b10111010011111111010101000101110 J
#790
0!
0#
01
#795
1!
1#
11
b00000000000000000000000100000100 C
0E
b001 F
b00000010 I
#796
b01 '
b01 5
b00000000000000000000000000010000 &
b00000000000000000000000000010000 4
b11010111010101111101110011100001 ,
b11010111010101111101110011100001 :
b11010111010101111101110011100001 J
#800
0!
0#
01
